Homework_6_Jared_Lee
…
Exercise 2

1) Generate a random sample of size n = 10000 from a gamma(1,2) distribution and plot a histogram or density curve. Use the code below to help you get your sample.

n <- 10000

# look at ?rgamma to read about this function
(gamma_samp <- tibble(x = rgamma(n, shape = 1, scale = 2)))

## # A tibble: 10,000 x 1
##         x
##     <dbl>
##  1 0.742 
##  2 0.0900
##  3 0.509 
##  4 1.07  
##  5 0.674 
##  6 0.396 
##  7 1.20  
##  8 0.334 
##  9 0.820 
## 10 2.14  
## # ... with 9,990 more rows
…
4) Take a sample of size n = 30, again from the Gamma(1,2) distribution, calculate the mean, and assign it to a vector named mean_samp. Repeat this 10000 times!!!! The code below might help.

# create a vector with 10000 NAs
mean_samp2 <- rep(NA, 10000)

# start a loop
for(i in 1:10000) {
  g_samp <- rgamma(30, shape = 1, scale = 2)
  mean_samp2[i] <- mean(g_samp)
}
# Convert vector to a tibble
(mean_samp2 <- tibble(mean_samp2))

## # A tibble: 10,000 x 1
##    mean_samp2
##         <dbl>
##  1       2.15
##  2       2.13
##  3       2.00
##  4       2.56
##  5       1.87
##  6       2.12
##  7       1.41
##  8       2.32
##  9       2.35
## 10       1.85
## # ... with 9,990 more rows
…
Answer: Distribution is still normal.

# create a vector with 10000 NAs
mean_samp2 <- rep(NA, 10000)

# start a loop
for(i in 1:10000) {
  g_samp <- rgamma(300, shape = 1, scale = 2)
  mean_samp2[i] <- mean(g_samp)
}

# Convert vector to a tibble
(mean_samp2 <- tibble(mean_samp2))

## # A tibble: 10,000 x 1
##    mean_samp2
##         <dbl>
##  1       1.92
##  2       1.98
##  3       2.08
##  4       2.00
##  5       1.94
##  6       1.94
##  7       1.95
##  8       2.13
##  9       1.98
## 10       1.80
## # ... with 9,990 more rows
…
