COMPSCIX 415.2 Homework 5/Midterm
…
EDA (6 points)

Take a look at the txhousing data set that is included with the ggplot2 package and answer these questions:

During what time period is this data from?

Answer: The time period is from January 2000 to July 2015.

#arrange by earliest year
txhousing %>% arrange((date))

## # A tibble: 8,602 x 9
##    city           year month sales  volume median listings inventory  date
##    <chr>         <int> <int> <dbl>   <dbl>  <dbl>    <dbl>     <dbl> <dbl>
##  1 Abilene        2000     1    72  5.38e6  71400      701       6.3  2000
##  2 Amarillo       2000     1   102  8.86e6  80000      972       5.3  2000
##  3 Arlington      2000     1   241  2.62e7  94000     1417       3.7  2000
##  4 Austin         2000     1  1025  1.73e8 133700     3084       2    2000
##  5 Bay Area       2000     1   244  2.93e7 100700     1766       4.3  2000
##  6 Beaumont       2000     1    97  1.01e7  82100      876       6.1  2000
##  7 Brazoria Cou  2000     1    55  5.24e6  74400      512       5.9  2000
##  8 Brownsville    2000     1    NA NA          NA      400       9.1  2000
##  9 Bryan-Colleg  2000     1    61  5.62e6  77900      498       4.2  2000
## 10 Collin County  2000     1   464  9.48e7 158700     2844       4    2000
## # ... with 8,592 more rows

#arrange by most recent year
txhousing %>% arrange(desc(date))

## # A tibble: 8,602 x 9
##    city          year month sales   volume median listings inventory  date
##    <chr>        <int> <int> <dbl>    <dbl>  <dbl>    <dbl>     <dbl> <dbl>
##  1 Abilene       2015     7   268   4.58e7 148700      986       5   2016.
##  2 Amarillo      2015     7   354   6.23e7 149700     1247       4.5 2016.
##  3 Arlington     2015     7   605   1.25e8 178900      752       1.7 2016.
##  4 Austin        2015     7  3466   1.15e9 264600     7913       3   2016.
##  5 Bay Area      2015     7   849   1.97e8 200800     2144       3.2 2016.
##  6 Beaumont      2015     7   318   5.29e7 139300     1561       6.4 2016.
##  7 Brazoria Co  2015     7    NA  NA          NA       NA      NA   2016.
##  8 Brownsville   2015     7    NA  NA          NA       NA      NA   2016.
##  9 Bryan-Colle  2015     7   414   9.04e7 190700      894       3.3 2016.
## 10 Collin Coun  2015     7  1861   6.14e8 292600     2809       2.1 2016.
## # ... with 8,592 more rows
…
What proportion of sales is missing for each city?

#Calculated the Proportion of missing sales for each city under the "prop_missing" column.
txhousing %>%
  group_by(city) %>%
  summarize(count = n(),
            missing_sales = sum(is.na(sales)),
            prop_missing = missing_sales/count) %>% 
  arrange(desc(prop_missing))

## # A tibble: 46 x 4
##    city               count missing_sales prop_missing
##    <chr>              <int>         <int>        <dbl>
##  1 South Padre Island   187           116       0.620 
##  2 Kerrville            187           104       0.556 
##  3 Midland              187            75       0.401 
##  4 Odessa               187            72       0.385 
##  5 San Marcos           187            46       0.246 
##  6 Laredo               187            36       0.193 
##  7 Harlingen            187            25       0.134 
##  8 Waco                 187            19       0.102 
##  9 Texarkana            187            17       0.0909
## 10 Brazoria County      187            14       0.0749
## # ... with 36 more rows
…
